mc20_13TeV.346759.aMcAtNloPythia8EvtGen_tWH125_CPalpha_0_gamgam.deriv.DAOD_PHYSLITE.e7816_s3681_r13167_p6266
mc20_13TeV.346759.aMcAtNloPythia8EvtGen_tWH125_CPalpha_0_gamgam.deriv.DAOD_PHYSLITE.e7816_s3681_r13144_p6266
mc20_13TeV.346759.aMcAtNloPythia8EvtGen_tWH125_CPalpha_0_gamgam.deriv.DAOD_PHYSLITE.e7816_s3681_r13145_p6266
