mc20_13TeV.800914.Py8EG_A14NNPDF23LO_XHS_X190_S015_HyySbb.deriv.DAOD_PHYSLITE.e8531_a907_r14859_p6266
mc20_13TeV.800914.Py8EG_A14NNPDF23LO_XHS_X190_S015_HyySbb.deriv.DAOD_PHYSLITE.e8531_a907_r14860_p6266
mc20_13TeV.800914.Py8EG_A14NNPDF23LO_XHS_X190_S015_HyySbb.deriv.DAOD_PHYSLITE.e8531_a907_r14861_p6266
mc20_13TeV.800918.Py8EG_A14NNPDF23LO_XHS_X210_S015_HyySbb.deriv.DAOD_PHYSLITE.e8531_a907_r14859_p6266
mc20_13TeV.800918.Py8EG_A14NNPDF23LO_XHS_X210_S015_HyySbb.deriv.DAOD_PHYSLITE.e8531_a907_r14860_p6266
mc20_13TeV.800918.Py8EG_A14NNPDF23LO_XHS_X210_S015_HyySbb.deriv.DAOD_PHYSLITE.e8531_a907_r14861_p6266
mc20_13TeV.800921.Py8EG_A14NNPDF23LO_XHS_X230_S015_HyySbb.deriv.DAOD_PHYSLITE.e8531_a907_r14859_p6266
mc20_13TeV.800921.Py8EG_A14NNPDF23LO_XHS_X230_S015_HyySbb.deriv.DAOD_PHYSLITE.e8531_a907_r14860_p6266
mc20_13TeV.800921.Py8EG_A14NNPDF23LO_XHS_X230_S015_HyySbb.deriv.DAOD_PHYSLITE.e8531_a907_r14861_p6266
mc20_13TeV.800923.Py8EG_A14NNPDF23LO_XHS_X250_S015_HyySbb.deriv.DAOD_PHYSLITE.e8531_a907_r14859_p6266
mc20_13TeV.800923.Py8EG_A14NNPDF23LO_XHS_X250_S015_HyySbb.deriv.DAOD_PHYSLITE.e8531_a907_r14860_p6266
mc20_13TeV.800923.Py8EG_A14NNPDF23LO_XHS_X250_S015_HyySbb.deriv.DAOD_PHYSLITE.e8531_a907_r14861_p6266
mc20_13TeV.801353.Py8EG_A14NNPDF23LO_XHS_X400_S30_HyySbb.deriv.DAOD_PHYSLITE.e8531_a907_r14859_p6266
mc20_13TeV.801353.Py8EG_A14NNPDF23LO_XHS_X400_S30_HyySbb.deriv.DAOD_PHYSLITE.e8531_a907_r14860_p6266
mc20_13TeV.801353.Py8EG_A14NNPDF23LO_XHS_X400_S30_HyySbb.deriv.DAOD_PHYSLITE.e8531_a907_r14861_p6266
mc20_13TeV.801354.Py8EG_A14NNPDF23LO_XHS_X500_S30_HyySbb.deriv.DAOD_PHYSLITE.e8531_a907_r14859_p6266
mc20_13TeV.801354.Py8EG_A14NNPDF23LO_XHS_X500_S30_HyySbb.deriv.DAOD_PHYSLITE.e8531_a907_r14860_p6266
mc20_13TeV.801354.Py8EG_A14NNPDF23LO_XHS_X500_S30_HyySbb.deriv.DAOD_PHYSLITE.e8531_a907_r14861_p6266
mc20_13TeV.801359.Py8EG_A14NNPDF23LO_XHS_X1000_S70_HyySbb.deriv.DAOD_PHYSLITE.e8531_a907_r14859_p6266
mc20_13TeV.801359.Py8EG_A14NNPDF23LO_XHS_X1000_S70_HyySbb.deriv.DAOD_PHYSLITE.e8531_a907_r14860_p6266
mc20_13TeV.801359.Py8EG_A14NNPDF23LO_XHS_X1000_S70_HyySbb.deriv.DAOD_PHYSLITE.e8531_a907_r14861_p6266
mc20_13TeV.801939.Py8EG_A14NNPDF23LO_XHS_X600_S40_HyySbb.deriv.DAOD_PHYSLITE.e8531_a907_r14859_p6266
mc20_13TeV.801939.Py8EG_A14NNPDF23LO_XHS_X600_S40_HyySbb.deriv.DAOD_PHYSLITE.e8531_a907_r14860_p6266
mc20_13TeV.801939.Py8EG_A14NNPDF23LO_XHS_X600_S40_HyySbb.deriv.DAOD_PHYSLITE.e8531_a907_r14861_p6266
mc20_13TeV.801940.Py8EG_A14NNPDF23LO_XHS_X750_S50_HyySbb.deriv.DAOD_PHYSLITE.e8531_a907_r14859_p6266
mc20_13TeV.801940.Py8EG_A14NNPDF23LO_XHS_X750_S50_HyySbb.deriv.DAOD_PHYSLITE.e8531_a907_r14860_p6266
mc20_13TeV.801940.Py8EG_A14NNPDF23LO_XHS_X750_S50_HyySbb.deriv.DAOD_PHYSLITE.e8531_a907_r14861_p6266
mc20_13TeV.802123.Py8EG_A14NNPDF23LO_XHS_X350_S30_HyySbb.deriv.DAOD_PHYSLITE.e8531_a907_r14859_p6266
mc20_13TeV.802123.Py8EG_A14NNPDF23LO_XHS_X350_S30_HyySbb.deriv.DAOD_PHYSLITE.e8531_a907_r14860_p6266
mc20_13TeV.802123.Py8EG_A14NNPDF23LO_XHS_X350_S30_HyySbb.deriv.DAOD_PHYSLITE.e8531_a907_r14861_p6266
mc20_13TeV.802126.Py8EG_A14NNPDF23LO_XHS_X375_S30_HyySbb.deriv.DAOD_PHYSLITE.e8531_a907_r14859_p6266
mc20_13TeV.802126.Py8EG_A14NNPDF23LO_XHS_X375_S30_HyySbb.deriv.DAOD_PHYSLITE.e8531_a907_r14860_p6266
mc20_13TeV.802126.Py8EG_A14NNPDF23LO_XHS_X375_S30_HyySbb.deriv.DAOD_PHYSLITE.e8531_a907_r14861_p6266
mc20_13TeV.802130.Py8EG_A14NNPDF23LO_XHS_X425_S30_HyySbb.deriv.DAOD_PHYSLITE.e8531_a907_r14859_p6266
mc20_13TeV.802130.Py8EG_A14NNPDF23LO_XHS_X425_S30_HyySbb.deriv.DAOD_PHYSLITE.e8531_a907_r14860_p6266
mc20_13TeV.802130.Py8EG_A14NNPDF23LO_XHS_X425_S30_HyySbb.deriv.DAOD_PHYSLITE.e8531_a907_r14861_p6266
mc20_13TeV.802133.Py8EG_A14NNPDF23LO_XHS_X450_S30_HyySbb.deriv.DAOD_PHYSLITE.e8531_a907_r14859_p6266
mc20_13TeV.802133.Py8EG_A14NNPDF23LO_XHS_X450_S30_HyySbb.deriv.DAOD_PHYSLITE.e8531_a907_r14860_p6266
mc20_13TeV.802133.Py8EG_A14NNPDF23LO_XHS_X450_S30_HyySbb.deriv.DAOD_PHYSLITE.e8531_a907_r14861_p6266
mc20_13TeV.802136.Py8EG_A14NNPDF23LO_XHS_X475_S30_HyySbb.deriv.DAOD_PHYSLITE.e8531_a907_r14859_p6266
mc20_13TeV.802136.Py8EG_A14NNPDF23LO_XHS_X475_S30_HyySbb.deriv.DAOD_PHYSLITE.e8531_a907_r14860_p6266
mc20_13TeV.802136.Py8EG_A14NNPDF23LO_XHS_X475_S30_HyySbb.deriv.DAOD_PHYSLITE.e8531_a907_r14861_p6266
mc20_13TeV.802140.Py8EG_A14NNPDF23LO_XHS_X525_S40_HyySbb.deriv.DAOD_PHYSLITE.e8531_a907_r14859_p6266
mc20_13TeV.802140.Py8EG_A14NNPDF23LO_XHS_X525_S40_HyySbb.deriv.DAOD_PHYSLITE.e8531_a907_r14860_p6266
mc20_13TeV.802140.Py8EG_A14NNPDF23LO_XHS_X525_S40_HyySbb.deriv.DAOD_PHYSLITE.e8531_a907_r14861_p6266
mc20_13TeV.802143.Py8EG_A14NNPDF23LO_XHS_X550_S40_HyySbb.deriv.DAOD_PHYSLITE.e8531_a907_r14859_p6266
mc20_13TeV.802143.Py8EG_A14NNPDF23LO_XHS_X550_S40_HyySbb.deriv.DAOD_PHYSLITE.e8531_a907_r14860_p6266
mc20_13TeV.802143.Py8EG_A14NNPDF23LO_XHS_X550_S40_HyySbb.deriv.DAOD_PHYSLITE.e8531_a907_r14861_p6266
mc20_13TeV.802146.Py8EG_A14NNPDF23LO_XHS_X575_S40_HyySbb.deriv.DAOD_PHYSLITE.e8531_a907_r14859_p6266
mc20_13TeV.802146.Py8EG_A14NNPDF23LO_XHS_X575_S40_HyySbb.deriv.DAOD_PHYSLITE.e8531_a907_r14860_p6266
mc20_13TeV.802146.Py8EG_A14NNPDF23LO_XHS_X575_S40_HyySbb.deriv.DAOD_PHYSLITE.e8531_a907_r14861_p6266
mc20_13TeV.802147.Py8EG_A14NNPDF23LO_XHS_X575_S50_HyySbb.deriv.DAOD_PHYSLITE.e8531_a907_r14859_p6266
mc20_13TeV.802147.Py8EG_A14NNPDF23LO_XHS_X575_S50_HyySbb.deriv.DAOD_PHYSLITE.e8531_a907_r14860_p6266
mc20_13TeV.802147.Py8EG_A14NNPDF23LO_XHS_X575_S50_HyySbb.deriv.DAOD_PHYSLITE.e8531_a907_r14861_p6266
mc20_13TeV.802149.Py8EG_A14NNPDF23LO_XHS_X600_S50_HyySbb.deriv.DAOD_PHYSLITE.e8531_a907_r14859_p6266
mc20_13TeV.802149.Py8EG_A14NNPDF23LO_XHS_X600_S50_HyySbb.deriv.DAOD_PHYSLITE.e8531_a907_r14860_p6266
mc20_13TeV.802149.Py8EG_A14NNPDF23LO_XHS_X600_S50_HyySbb.deriv.DAOD_PHYSLITE.e8531_a907_r14861_p6266
mc20_13TeV.802150.Py8EG_A14NNPDF23LO_XHS_X650_S50_HyySbb.deriv.DAOD_PHYSLITE.e8531_a907_r14859_p6266
mc20_13TeV.802150.Py8EG_A14NNPDF23LO_XHS_X650_S50_HyySbb.deriv.DAOD_PHYSLITE.e8531_a907_r14860_p6266
mc20_13TeV.802150.Py8EG_A14NNPDF23LO_XHS_X650_S50_HyySbb.deriv.DAOD_PHYSLITE.e8531_a907_r14861_p6266
mc20_13TeV.802153.Py8EG_A14NNPDF23LO_XHS_X700_S50_HyySbb.deriv.DAOD_PHYSLITE.e8531_a907_r14859_p6266
mc20_13TeV.802153.Py8EG_A14NNPDF23LO_XHS_X700_S50_HyySbb.deriv.DAOD_PHYSLITE.e8531_a907_r14860_p6266
mc20_13TeV.802153.Py8EG_A14NNPDF23LO_XHS_X700_S50_HyySbb.deriv.DAOD_PHYSLITE.e8531_a907_r14861_p6266
mc20_13TeV.802156.Py8EG_A14NNPDF23LO_XHS_X800_S70_HyySbb.deriv.DAOD_PHYSLITE.e8531_a907_r14859_p6266
mc20_13TeV.802156.Py8EG_A14NNPDF23LO_XHS_X800_S70_HyySbb.deriv.DAOD_PHYSLITE.e8531_a907_r14860_p6266
mc20_13TeV.802156.Py8EG_A14NNPDF23LO_XHS_X800_S70_HyySbb.deriv.DAOD_PHYSLITE.e8531_a907_r14861_p6266
mc20_13TeV.802157.Py8EG_A14NNPDF23LO_XHS_X850_S70_HyySbb.deriv.DAOD_PHYSLITE.e8531_a907_r14859_p6266
mc20_13TeV.802157.Py8EG_A14NNPDF23LO_XHS_X850_S70_HyySbb.deriv.DAOD_PHYSLITE.e8531_a907_r14860_p6266
mc20_13TeV.802157.Py8EG_A14NNPDF23LO_XHS_X850_S70_HyySbb.deriv.DAOD_PHYSLITE.e8531_a907_r14861_p6266
mc20_13TeV.802158.Py8EG_A14NNPDF23LO_XHS_X900_S70_HyySbb.deriv.DAOD_PHYSLITE.e8531_a907_r14859_p6266
mc20_13TeV.802158.Py8EG_A14NNPDF23LO_XHS_X900_S70_HyySbb.deriv.DAOD_PHYSLITE.e8531_a907_r14860_p6266
mc20_13TeV.802158.Py8EG_A14NNPDF23LO_XHS_X900_S70_HyySbb.deriv.DAOD_PHYSLITE.e8531_a907_r14861_p6266
mc20_13TeV.802159.Py8EG_A14NNPDF23LO_XHS_X950_S70_HyySbb.deriv.DAOD_PHYSLITE.e8531_a907_r14859_p6266
mc20_13TeV.802159.Py8EG_A14NNPDF23LO_XHS_X950_S70_HyySbb.deriv.DAOD_PHYSLITE.e8531_a907_r14860_p6266
mc20_13TeV.802159.Py8EG_A14NNPDF23LO_XHS_X950_S70_HyySbb.deriv.DAOD_PHYSLITE.e8531_a907_r14861_p6266
mc20_13TeV.802162.Py8EG_A14NNPDF23LO_XHS_X200_S15_HyySbb.deriv.DAOD_PHYSLITE.e8531_a907_r14859_p6266
mc20_13TeV.802162.Py8EG_A14NNPDF23LO_XHS_X200_S15_HyySbb.deriv.DAOD_PHYSLITE.e8531_a907_r14860_p6266
mc20_13TeV.802162.Py8EG_A14NNPDF23LO_XHS_X200_S15_HyySbb.deriv.DAOD_PHYSLITE.e8531_a907_r14861_p6266
mc20_13TeV.802163.Py8EG_A14NNPDF23LO_XHS_X220_S15_HyySbb.deriv.DAOD_PHYSLITE.e8531_a907_r14859_p6266
mc20_13TeV.802163.Py8EG_A14NNPDF23LO_XHS_X220_S15_HyySbb.deriv.DAOD_PHYSLITE.e8531_a907_r14860_p6266
mc20_13TeV.802163.Py8EG_A14NNPDF23LO_XHS_X220_S15_HyySbb.deriv.DAOD_PHYSLITE.e8531_a907_r14861_p6266
mc20_13TeV.802164.Py8EG_A14NNPDF23LO_XHS_X240_S15_HyySbb.deriv.DAOD_PHYSLITE.e8531_a907_r14859_p6266
mc20_13TeV.802164.Py8EG_A14NNPDF23LO_XHS_X240_S15_HyySbb.deriv.DAOD_PHYSLITE.e8531_a907_r14860_p6266
mc20_13TeV.802164.Py8EG_A14NNPDF23LO_XHS_X240_S15_HyySbb.deriv.DAOD_PHYSLITE.e8531_a907_r14861_p6266
