# RS Graviton AF3
mc23_13p6TeV.522557.MGPy8EG_A14N23LO_RS_G_hh_bbbb_AutoWidth_c10_M300.deriv.DAOD_PHYS.e8577_a910_r15540_p6491
mc23_13p6TeV.522557.MGPy8EG_A14N23LO_RS_G_hh_bbbb_AutoWidth_c10_M300.deriv.DAOD_PHYS.e8577_a911_r15530_p6491
mc23_13p6TeV.522558.MGPy8EG_A14N23LO_RS_G_hh_bbbb_AutoWidth_c10_M400.deriv.DAOD_PHYS.e8577_a910_r15540_p6491
mc23_13p6TeV.522558.MGPy8EG_A14N23LO_RS_G_hh_bbbb_AutoWidth_c10_M400.deriv.DAOD_PHYS.e8577_a911_r15530_p6491
mc23_13p6TeV.522559.MGPy8EG_A14N23LO_RS_G_hh_bbbb_AutoWidth_c10_M500.deriv.DAOD_PHYS.e8577_a910_r15540_p6491
mc23_13p6TeV.522559.MGPy8EG_A14N23LO_RS_G_hh_bbbb_AutoWidth_c10_M500.deriv.DAOD_PHYS.e8577_a911_r15530_p6491
mc23_13p6TeV.522560.MGPy8EG_A14N23LO_RS_G_hh_bbbb_AutoWidth_c10_M600.deriv.DAOD_PHYS.e8577_a910_r15540_p6491
mc23_13p6TeV.522560.MGPy8EG_A14N23LO_RS_G_hh_bbbb_AutoWidth_c10_M600.deriv.DAOD_PHYS.e8577_a911_r15530_p6491
mc23_13p6TeV.522561.MGPy8EG_A14N23LO_RS_G_hh_bbbb_AutoWidth_c10_M700.deriv.DAOD_PHYS.e8577_a910_r15540_p6491
mc23_13p6TeV.522561.MGPy8EG_A14N23LO_RS_G_hh_bbbb_AutoWidth_c10_M700.deriv.DAOD_PHYS.e8577_a911_r15530_p6491
mc23_13p6TeV.522562.MGPy8EG_A14N23LO_RS_G_hh_bbbb_AutoWidth_c10_M800.deriv.DAOD_PHYS.e8577_a910_r15540_p6491
mc23_13p6TeV.522562.MGPy8EG_A14N23LO_RS_G_hh_bbbb_AutoWidth_c10_M800.deriv.DAOD_PHYS.e8577_a911_r15530_p6491
mc23_13p6TeV.522563.MGPy8EG_A14N23LO_RS_G_hh_bbbb_AutoWidth_c10_M900.deriv.DAOD_PHYS.e8577_a910_r15540_p6491
mc23_13p6TeV.522563.MGPy8EG_A14N23LO_RS_G_hh_bbbb_AutoWidth_c10_M900.deriv.DAOD_PHYS.e8577_a911_r15530_p6491
mc23_13p6TeV.522564.MGPy8EG_A14N23LO_RS_G_hh_bbbb_AutoWidth_c10_M1000.deriv.DAOD_PHYS.e8577_a910_r15540_p6491
mc23_13p6TeV.522564.MGPy8EG_A14N23LO_RS_G_hh_bbbb_AutoWidth_c10_M1000.deriv.DAOD_PHYS.e8577_a911_r15530_p6491
mc23_13p6TeV.545741.MGPy8EG_A14N23LO_RS_G_hh_bbbb_AutoWidth_c10_M1100.deriv.DAOD_PHYS.e8577_a910_r15540_p6491
mc23_13p6TeV.545741.MGPy8EG_A14N23LO_RS_G_hh_bbbb_AutoWidth_c10_M1100.deriv.DAOD_PHYS.e8577_a911_r15530_p6491
mc23_13p6TeV.545742.MGPy8EG_A14N23LO_RS_G_hh_bbbb_AutoWidth_c10_M1200.deriv.DAOD_PHYS.e8577_a910_r15540_p6491
mc23_13p6TeV.545742.MGPy8EG_A14N23LO_RS_G_hh_bbbb_AutoWidth_c10_M1200.deriv.DAOD_PHYS.e8577_a911_r15530_p6491
mc23_13p6TeV.545743.MGPy8EG_A14N23LO_RS_G_hh_bbbb_AutoWidth_c10_M1300.deriv.DAOD_PHYS.e8577_a910_r15540_p6491
mc23_13p6TeV.545743.MGPy8EG_A14N23LO_RS_G_hh_bbbb_AutoWidth_c10_M1300.deriv.DAOD_PHYS.e8577_a911_r15530_p6491
mc23_13p6TeV.545744.MGPy8EG_A14N23LO_RS_G_hh_bbbb_AutoWidth_c10_M1400.deriv.DAOD_PHYS.e8577_a910_r15540_p6491
mc23_13p6TeV.545744.MGPy8EG_A14N23LO_RS_G_hh_bbbb_AutoWidth_c10_M1400.deriv.DAOD_PHYS.e8577_a911_r15530_p6491
mc23_13p6TeV.545745.MGPy8EG_A14N23LO_RS_G_hh_bbbb_AutoWidth_c10_M1500.deriv.DAOD_PHYS.e8577_a910_r15540_p6491
mc23_13p6TeV.545745.MGPy8EG_A14N23LO_RS_G_hh_bbbb_AutoWidth_c10_M1500.deriv.DAOD_PHYS.e8577_a911_r15530_p6491
mc23_13p6TeV.545746.MGPy8EG_A14N23LO_RS_G_hh_bbbb_AutoWidth_c10_M1600.deriv.DAOD_PHYS.e8577_a910_r15540_p6491
mc23_13p6TeV.545746.MGPy8EG_A14N23LO_RS_G_hh_bbbb_AutoWidth_c10_M1600.deriv.DAOD_PHYS.e8577_a911_r15530_p6491
mc23_13p6TeV.545747.MGPy8EG_A14N23LO_RS_G_hh_bbbb_AutoWidth_c10_M1800.deriv.DAOD_PHYS.e8577_a910_r15540_p6491
mc23_13p6TeV.545747.MGPy8EG_A14N23LO_RS_G_hh_bbbb_AutoWidth_c10_M1800.deriv.DAOD_PHYS.e8577_a911_r15530_p6491
mc23_13p6TeV.545748.MGPy8EG_A14N23LO_RS_G_hh_bbbb_AutoWidth_c10_M2000.deriv.DAOD_PHYS.e8577_a910_r15540_p6491
mc23_13p6TeV.545748.MGPy8EG_A14N23LO_RS_G_hh_bbbb_AutoWidth_c10_M2000.deriv.DAOD_PHYS.e8577_a911_r15530_p6491
mc23_13p6TeV.545749.MGPy8EG_A14N23LO_RS_G_hh_bbbb_AutoWidth_c10_M2250.deriv.DAOD_PHYS.e8577_a910_r15540_p6491
mc23_13p6TeV.545749.MGPy8EG_A14N23LO_RS_G_hh_bbbb_AutoWidth_c10_M2250.deriv.DAOD_PHYS.e8577_a911_r15530_p6491
mc23_13p6TeV.545750.MGPy8EG_A14N23LO_RS_G_hh_bbbb_AutoWidth_c10_M2500.deriv.DAOD_PHYS.e8577_a910_r15540_p6491
mc23_13p6TeV.545750.MGPy8EG_A14N23LO_RS_G_hh_bbbb_AutoWidth_c10_M2500.deriv.DAOD_PHYS.e8577_a911_r15530_p6491
mc23_13p6TeV.545751.MGPy8EG_A14N23LO_RS_G_hh_bbbb_AutoWidth_c10_M2750.deriv.DAOD_PHYS.e8577_a910_r15540_p6491
mc23_13p6TeV.545751.MGPy8EG_A14N23LO_RS_G_hh_bbbb_AutoWidth_c10_M2750.deriv.DAOD_PHYS.e8577_a911_r15530_p6491
mc23_13p6TeV.545752.MGPy8EG_A14N23LO_RS_G_hh_bbbb_AutoWidth_c10_M3000.deriv.DAOD_PHYS.e8577_a910_r15540_p6491
mc23_13p6TeV.545752.MGPy8EG_A14N23LO_RS_G_hh_bbbb_AutoWidth_c10_M3000.deriv.DAOD_PHYS.e8577_a911_r15530_p6491
mc23_13p6TeV.545753.MGPy8EG_A14N23LO_RS_G_hh_bbbb_AutoWidth_c10_M3500.deriv.DAOD_PHYS.e8577_a910_r15540_p6491
mc23_13p6TeV.545753.MGPy8EG_A14N23LO_RS_G_hh_bbbb_AutoWidth_c10_M3500.deriv.DAOD_PHYS.e8577_a911_r15530_p6491
mc23_13p6TeV.545754.MGPy8EG_A14N23LO_RS_G_hh_bbbb_AutoWidth_c10_M4000.deriv.DAOD_PHYS.e8577_a910_r15540_p6491
mc23_13p6TeV.545754.MGPy8EG_A14N23LO_RS_G_hh_bbbb_AutoWidth_c10_M4000.deriv.DAOD_PHYS.e8577_a911_r15530_p6491
mc23_13p6TeV.545755.MGPy8EG_A14N23LO_RS_G_hh_bbbb_AutoWidth_c10_M4500.deriv.DAOD_PHYS.e8577_a910_r15540_p6491
mc23_13p6TeV.545755.MGPy8EG_A14N23LO_RS_G_hh_bbbb_AutoWidth_c10_M4500.deriv.DAOD_PHYS.e8577_a911_r15530_p6491
mc23_13p6TeV.545756.MGPy8EG_A14N23LO_RS_G_hh_bbbb_AutoWidth_c10_M5000.deriv.DAOD_PHYS.e8577_a910_r15540_p6491
mc23_13p6TeV.545756.MGPy8EG_A14N23LO_RS_G_hh_bbbb_AutoWidth_c10_M5000.deriv.DAOD_PHYS.e8577_a911_r15530_p6491
mc23_13p6TeV.545757.MGPy8EG_A14N23LO_RS_G_hh_bbbb_AutoWidth_c10_M5500.deriv.DAOD_PHYS.e8577_a910_r15540_p6491
mc23_13p6TeV.545757.MGPy8EG_A14N23LO_RS_G_hh_bbbb_AutoWidth_c10_M5500.deriv.DAOD_PHYS.e8577_a911_r15530_p6491
mc23_13p6TeV.545758.MGPy8EG_A14N23LO_RS_G_hh_bbbb_AutoWidth_c10_M6000.deriv.DAOD_PHYS.e8577_a910_r15540_p6491
mc23_13p6TeV.545758.MGPy8EG_A14N23LO_RS_G_hh_bbbb_AutoWidth_c10_M6000.deriv.DAOD_PHYS.e8577_a911_r15530_p6491
# RS Graviton FullSim
mc23_13p6TeV.522564.MGPy8EG_A14N23LO_RS_G_hh_bbbb_AutoWidth_c10_M1000.deriv.DAOD_PHYS.e8557_s4159_r15530_p6491
mc23_13p6TeV.522564.MGPy8EG_A14N23LO_RS_G_hh_bbbb_AutoWidth_c10_M1000.deriv.DAOD_PHYS.e8557_s4162_r15540_p6491
mc23_13p6TeV.545752.MGPy8EG_A14N23LO_RS_G_hh_bbbb_AutoWidth_c10_M3000.deriv.DAOD_PHYS.e8557_s4159_r15530_p6491
mc23_13p6TeV.545752.MGPy8EG_A14N23LO_RS_G_hh_bbbb_AutoWidth_c10_M3000.deriv.DAOD_PHYS.e8557_s4162_r15540_p6491
