mc23_13p6TeV.800904.Py8EG_A14NNPDF23LO_XHS_X170_S030_HyySbb.deriv.DAOD_PHYS.e8557_a910_r14932_p6026
mc23_13p6TeV.800904.Py8EG_A14NNPDF23LO_XHS_X170_S030_HyySbb.deriv.DAOD_PHYS.e8557_a911_r15224_p6026
mc23_13p6TeV.800913.Py8EG_A14NNPDF23LO_XHS_X245_S090_HyySbb.deriv.DAOD_PHYS.e8557_a910_r14932_p6026
mc23_13p6TeV.800913.Py8EG_A14NNPDF23LO_XHS_X245_S090_HyySbb.deriv.DAOD_PHYS.e8557_a911_r15224_p6026
mc23_13p6TeV.800915.Py8EG_A14NNPDF23LO_XHS_X205_S030_HyySbb.deriv.DAOD_PHYS.e8557_a910_r14932_p6026
mc23_13p6TeV.800915.Py8EG_A14NNPDF23LO_XHS_X205_S030_HyySbb.deriv.DAOD_PHYS.e8557_a911_r15224_p6026
mc23_13p6TeV.801367.Py8EG_A14NNPDF23LO_XHS_X750_S170_HyySbb.deriv.DAOD_PHYS.e8557_a910_r14932_p6026
mc23_13p6TeV.801367.Py8EG_A14NNPDF23LO_XHS_X750_S170_HyySbb.deriv.DAOD_PHYS.e8557_a911_r15224_p6026
mc23_13p6TeV.801370.Py8EG_A14NNPDF23LO_XHS_X750_S400_HyySbb.deriv.DAOD_PHYS.e8557_a910_r14932_p6026
mc23_13p6TeV.801370.Py8EG_A14NNPDF23LO_XHS_X750_S400_HyySbb.deriv.DAOD_PHYS.e8557_a911_r15224_p6026
