mc23_13p6TeV.701085.Sh_2214_ZqqZll.deriv.DAOD_PHYS.e8543_s4162_r14622_p6266
# mc23_13p6TeV.701085.Sh_2214_ZqqZll.deriv.DAOD_PHYS.e8543_s4159_r15224_p6266
mc23_13p6TeV.701105.Sh_2214_WqqZll.deriv.DAOD_PHYS.e8543_s4162_r14622_p6266
# mc23_13p6TeV.701105.Sh_2214_WqqZll.deriv.DAOD_PHYS.e8543_s4159_r15224_p6266
mc23_13p6TeV.701115.Sh_2214_WlvZqq.deriv.DAOD_PHYS.e8543_s4162_r14622_p6266
# mc23_13p6TeV.701115.Sh_2214_WlvZqq.deriv.DAOD_PHYS.e8543_s4159_r15224_p6266
mc23_13p6TeV.701125.Sh_2214_WlvWqq.deriv.DAOD_PHYS.e8543_s4162_r14622_p6266
# mc23_13p6TeV.701125.Sh_2214_WlvWqq.deriv.DAOD_PHYS.e8543_s4159_r15224_p6266
